{
	"name": "Eastern Standard WordPress Post List",
	"slug": "eswp-post-list",
	"author": "<a href='https://easternstandard.com'>Eastern Standard</a>",
	"author_profile": "http://profiles.wordpress.org",
	"version": "1.1.1",
	"download_url": "https://bitbucket.org/estrnstd/eastern-standard-wordpress-post-list/raw/HEAD/eswp-post-list.zip",
	"requires": "5.8",
	"tested": "6.4",
	"requires_php": "7.2",
	"last_updated": "2022-03-08 12:00:00",
	"sections": {
		"description": "A WordPress plugin for building custom post lists.",
		"installation": "Click the activate button.",
		"changelog": "<h4>1.0.0 - 3 March 2022</h4><ul><li>Initial release.</li></ul>"
	}
}